{
  "/jobseeker/getbasicprofile/*": {
    "target": "http://128.199.29.224:8080",
    "secure": false,
    "logLevel": "debug"
  },
  "/elasticsearch/getLanguages": {
    "target": "http://128.199.29.224:8080",
    "secure": false,
    "logLevel": "debug"
  },
  "/jobseeker/createbasicprofile/*": {
    "target": "http://128.199.29.224:8080", 
    "secure": false,
    "logLevel": "debug"
  },
  "/jobseeker/uploadIDfile/*": {
    "target": "http://128.199.29.224:8080",
    "secure": false,
    "logLevel": "debug"
  },
  "/identity/getEmailValid/*": {
    "target": "http://128.199.29.224:8080",
    "secure": false,
    "logLevel": "debug"
  },
  "/identity/sendEmailOTP/*": {
    "target": "http://128.199.29.224:8080",
    "secure": false,
    "logLevel": "debug"
  },
  "/identity/validateEmailOTP/*": {
    "target": "http://128.199.29.224:8080",
    "secure": false,
    "logLevel": "debug"
  },
  "/jobseeker/uploadTaxfile/*": {
    "target": "http://128.199.29.224:8080",
    "secure": false,
    "logLevel": "debug"
  },
  "/jobseeker/updateAddress/*": {
    "target": "http://128.199.29.224:8080",
    "secure": false,
    "logLevel": "debug"
  },
  "/jobseeker/uploadAddFile/*": {
    "target": "http://128.199.29.224:8080",
    "secure": false,
    "logLevel": "debug"
  },
  "/jobseeker/getEducation/*": {
    "target": "http://128.199.29.224:8080",
    "secure": false,
    "logLevel": "debug"
  },
  "/jobseeker/updateEducation/*": {
    "target": "http://128.199.29.224:8080",
    "secure": false,
    "logLevel": "debug"
  },
  "/jobseeker/updateEducationCertificate/*": {
    "target": "http://128.199.29.224:8080",
    "secure": false,
    "logLevel": "debug"
  },
  "/jobseeker/getExperience/*": {
    "target": "http://128.199.29.224:8080",
    "secure": false,
    "logLevel": "debug"
  },
  "/jobseeker/getOtherDetails/*": {
    "target": "http://128.199.29.224:8080",
    "secure": false,
    "logLevel": "debug"
  },
  "/jobseeker/updateExperienceDetails/*": {
    "target": "http://128.199.29.224:8080",
    "secure": false,
    "logLevel": "debug"
  },
  "/jobseeker/updateExperienceCertificate/*": {
    "target": "http://128.199.29.224:8080",
    "secure": false,
    "logLevel": "debug"
  },
  "/jobseeker/updateJoiningLetter/*": {
    "target": "http://128.199.29.224:8080",
    "secure": false,
    "logLevel": "debug"
  },
  "/jobseeker/updateSkillDetails/*": {
    "target": "http://128.199.29.224:8080",
    "secure": false,
    "logLevel": "debug"
  },
  "/jobseeker/updateResume/*": {
    "target": "http://128.199.29.224:8080",
    "secure": false,
    "logLevel": "debug"
  },
  "/jobseeker/submitDetails/*": {
    "target": "http://128.199.29.224:8080",
    "secure": false,
    "logLevel": "debug"
  },
  "/identity/getMobileValid/*": {
    "target": "http://128.199.29.224:8080",
    "secure": false,
    "logLevel": "debug" 
  },
  "/identity/sendMobileOTP/*": {
    "target": "http://128.199.29.224:8080",
    "secure": false,
    "logLevel": "debug"
  },
  "/identity/validateMobileOTP/*": {
    "target": "http://128.199.29.224:8080",
    "secure": false,
    "logLevel": "debug"
  },
  "/elasticsearch/getJobrolebyName/*": {
    "target": "http://128.199.29.224:8080",
    "secure": false,
    "logLevel": "debug"
  },
  "/identity/registerUser/*": {
    "target": "http://128.199.29.224:8080",
    "secure": false,
    "logLevel": "debug"
  },
  "/admin/getApprovalQueue/*": {
    "target": "http://128.199.29.224:8080",
    "secure": false,
    "logLevel": "debug"
  },
  "/admin/getDocumentDetails/*": {
    "target": "http://128.199.29.224:8080",
    "secure": false,
    "logLevel": "debug"
  },
  "/admin/approveDetailDocuments/*": {
    "target": "http://128.199.29.224:8080",
    "secure": false,
    "logLevel": "debug"
  },
  "/admin/getApprovalMaster/*": {
    "target": "http://128.199.29.224:8080",
    "secure": false,
    "logLevel": "debug"
  },
  "/admin/approveMasterDocuments/*": {
    "target": "http://128.199.29.224:8080",
    "secure": false,
    "logLevel": "debug"
  },
  "/admin/createCompetency/*": {
    "target": "http://128.199.29.224:8080",
    "secure": false,
    "logLevel": "debug"
  },
  "/admin/createSkill/*": {
    "target": "http://128.199.29.224:8080",
    "secure": false,
    "logLevel": "debug"
  },
  "/elasticsearch/getCompetencyByName/*": {
    "target": "http://128.199.29.224:8080",
    "secure": false,
    "logLevel": "debug"
  },
  "/admin/createjobrole/*": {
    "target": "http://128.199.29.224:8080",
    "secure": false,
    "logLevel": "debug"
  },
  "/admin/createcountry/*": {
    "target": "http://128.199.29.224:8080",
    "secure": false,
    "logLevel": "debug"
  },
  "/elasticsearch/getAllCountries/*": {
    "target": "http://128.199.29.224:8080",
    "secure": false,
    "logLevel": "debug"
  },
  "/admin/createstate/*": {
    "target": "http://128.199.29.224:8080",
    "secure": false,
    "logLevel": "debug"
  },
  "/elasticsearch/getAllStatesForCountry/*": {
    "target": "http://128.199.29.224:8080",
    "secure": false,
    "logLevel": "debug"
  },
  "/admin/createDistrict/*": {
    "target": "http://128.199.29.224:8080",
    "secure": false,
    "logLevel": "debug"
  },
  "/elasticsearch/getAllDistrictsForState/*": {
    "target": "http://128.199.29.224:8080",
    "secure": false,
    "logLevel": "debug"
  },
  "/admin/createcity/*": {
    "target": "http://128.199.29.224:8080",
    "secure": false,
    "logLevel": "debug"
  },
  "/jobseeker/deleteEducation/*": {
    "target": "http://128.199.29.224:8080",
    "secure": false,
    "logLevel": "debug"
  },
  "/jobseeker/deleteExperience/*": {
    "target": "http://128.199.29.224:8080",
    "secure": false,
    "logLevel": "debug"
  },
  "/jobseeker/getSkillsCompetencies/*": {
    "target": "http://128.199.29.224:8080",
    "secure": false,
    "logLevel": "debug"
  },
  "/jobseeker/submitSkills/*": {
    "target": "http://128.199.29.224:8080",
    "secure": false,
    "logLevel": "debug"
  },
  "/jobseeker/DeleteSkillCompetency/*": {
    "target": "http://128.199.29.224:8080",
    "secure": false,
    "logLevel": "debug"
  },
  "/freelancer/getbasicprofile/*": {
    "target": "http://128.199.29.224:8080",
    "secure": false,
    "logLevel": "debug"
  },
  "/freelancer/createbasicprofile/*": {
    "target": "http://128.199.29.224:8080",
    "secure": false,
    "logLevel": "debug"
  },
  "/freelancer/uploadIDfile/*": {
    "target": "http://128.199.29.224:8080",
    "secure": false,
    "logLevel": "debug"
  },
  "/freelancer/uploadTaxfile/*": {
    "target": "http://128.199.29.224:8080",
    "secure": false,
    "logLevel": "debug"
  },
  "/freelancer/updateAddress/*": {
    "target": "http://128.199.29.224:8080",
    "secure": false,
    "logLevel": "debug"
  },
  "/freelancer/uploadAddFile/*": {
    "target": "http://128.199.29.224:8080",
    "secure": false,
    "logLevel": "debug"
  },
  "/freelancer/getEducation/*": {
    "target": "http://128.199.29.224:8080",
    "secure": false,
    "logLevel": "debug"
  },
  "/freelancer/updateEducation/*": {
    "target": "http://128.199.29.224:8080",
    "secure": false,
    "logLevel": "debug"
  },
  "/freelancer/updateEducationCertificate/*": {
    "target": "http://128.199.29.224:8080",
    "secure": false,
    "logLevel": "debug"
  },
  "/freelancer/getExperience/*": {
    "target": "http://128.199.29.224:8080",
    "secure": false,
    "logLevel": "debug"
  },
  "/freelancer/getOtherDetails/*": {
    "target": "http://128.199.29.224:8080",
    "secure": false,
    "logLevel": "debug"
  },
  "/freelancer/updateExperienceDetails/*": {
    "target": "http://128.199.29.224:8080",
    "secure": false,
    "logLevel": "debug"
  },
  "/freelancer/updateExperienceCertificate/*": {
    "target": "http://128.199.29.224:8080",
    "secure": false,
    "logLevel": "debug"
  },
  "/freelancer/updateJoiningLetter/*": {
    "target": "http://128.199.29.224:8080",
    "secure": false,
    "logLevel": "debug"
  },
  "/freelancer/updateSkillDetails/*": {
    "target": "http://128.199.29.224:8080",
    "secure": false,
    "logLevel": "debug"
  },
  "/freelancer/updateResume/*": {
    "target": "http://128.199.29.224:8080",
    "secure": false,
    "logLevel": "debug"
  },
  "/freelancer/submitDetails/*": {
    "target": "http://128.199.29.224:8080",
    "secure": false,
    "logLevel": "debug"
  },"/freelancer/deleteEducation/*": {
    "target": "http://128.199.29.224:8080",
    "secure": false,
    "logLevel": "debug"
  },
  "/freelancer/deleteExperience/*": {
    "target": "http://128.199.29.224:8080",
    "secure": false,
    "logLevel": "debug"
  },
  "/freelancer/getSkillsCompetencies/*": {
    "target": "http://128.199.29.224:8080",
    "secure": false,
    "logLevel": "debug"
  },
  "/freelancer/submitSkills/*": {
    "target": "http://128.199.29.224:8080",
    "secure": false,
    "logLevel": "debug"
  },
  "/freelancer/DeleteSkillCompetency/*": {
    "target": "http://128.199.29.224:8080",
    "secure": false,
    "logLevel": "debug"
  }
}